<?xml version="1.0" encoding="utf-8"?>
<!-- Generator: Adobe Illustrator 21.0.2, SVG Export Plug-In . SVG Version: 6.00 Build 0)  -->
<svg version="1.1" id="Layer_1" xmlns="http://www.w3.org/2000/svg" xmlns:xlink="http://www.w3.org/1999/xlink" x="0px" y="0px"
	 viewBox="0 0 51.5 38.7" style="enable-background:new 0 0 51.5 38.7;" xml:space="preserve">
<style type="text/css">
	.st0{fill:#823332;}
</style>
<path class="st0" d="M48.1,29.9H16.6c-1.8,0-3.3,1.6-3.3,3.5c0,1.9,1.5,3.5,3.3,3.5h31.5c1.8,0,3.3-1.6,3.3-3.5
	C51.4,31.5,49.9,29.9,48.1,29.9 M48.1,15.8H16.6c-1.8,0-3.3,1.6-3.3,3.5c0,1.9,1.5,3.5,3.3,3.5h31.5c1.8,0,3.3-1.6,3.3-3.5
	C51.4,17.4,49.9,15.8,48.1,15.8 M16.6,8.8h31.5c1.8,0,3.3-1.6,3.3-3.5c0-1.9-1.5-3.5-3.3-3.5H16.6c-1.8,0-3.3,1.6-3.3,3.5
	C13.3,7.2,14.8,8.8,16.6,8.8 M5,28.2c-2.7,0-5,2.4-5,5.3c0,2.9,2.2,5.3,5,5.3c2.8,0,5-2.4,5-5.3C10,30.5,7.7,28.2,5,28.2 M5,14.1
	c-2.7,0-5,2.4-5,5.3c0,2.9,2.2,5.3,5,5.3c2.8,0,5-2.4,5-5.3C10,16.4,7.7,14.1,5,14.1 M5,0C2.2,0,0,2.4,0,5.3c0,2.9,2.2,5.3,5,5.3
	c2.8,0,5-2.4,5-5.3C10,2.4,7.7,0,5,0"/>
</svg>
