<?xml version="1.0" encoding="utf-8"?>
<!-- Generator: Adobe Illustrator 21.0.2, SVG Export Plug-In . SVG Version: 6.00 Build 0)  -->
<svg version="1.1" id="Layer_1" xmlns="http://www.w3.org/2000/svg" xmlns:xlink="http://www.w3.org/1999/xlink" x="0px" y="0px"
	 viewBox="0 0 43.5 43" style="enable-background:new 0 0 43.5 43;" xml:space="preserve">
<style type="text/css">
	.st0{fill:#823332;}
	.st1{fill:#FFFFFF;}
</style>
<path class="st0" d="M21.7,43c11.7,0,21.5-9.5,21.5-21.5C43.2,9.6,33.4,0,21.7,0C9.7,0,0.2,9.6,0.2,21.5C0.2,33.5,9.7,43,21.7,43"/>
<path class="st1" d="M21.8,1.4L21.8,1.4L21.8,1.4h-0.3h0h0h0C10.5,1.7,1.6,10.6,1.6,21.5c0,10.9,8.9,19.8,19.8,20.1h0h0h0.3h0h0
	c10.9-0.3,19.8-9.2,19.8-20.1C41.5,10.6,32.6,1.7,21.8,1.4z M21.7,38.9h-0.2c-9.4-0.3-17.1-8-17.1-17.4c0-9.3,7.7-17.1,17.1-17.4
	h0.2c9.4,0.3,17.1,8,17.1,17.4C38.8,30.9,31.1,38.6,21.7,38.9z"/>
<polygon class="st1" points="32,14.8 29.3,12.2 21.5,20.2 13.8,12.5 11.1,15.1 18.8,22.8 11.4,30.4 14.1,33 21.5,25.5 29,33 
	31.7,30.4 24.1,22.8 "/>
</svg>
