<?xml version="1.0" encoding="utf-8"?>
<!-- Generator: Adobe Illustrator 21.0.2, SVG Export Plug-In . SVG Version: 6.00 Build 0)  -->
<svg version="1.1" id="Layer_1" xmlns="http://www.w3.org/2000/svg" xmlns:xlink="http://www.w3.org/1999/xlink" x="0px" y="0px"
	 viewBox="0 0 46.8 36.3" style="enable-background:new 0 0 46.8 36.3;" xml:space="preserve">
<style type="text/css">
	.st0{fill:#823332;}
	.st1{fill:#808285;}
</style>
<polygon class="st0" points="18,10.2 10.3,10.2 10.3,2.4 7.7,2.4 7.7,10.2 0,10.2 0,12.9 7.7,12.9 7.7,20.3 10.3,20.3 10.3,12.9 
	18,12.9 "/>
<g>
	<path class="st1" d="M46.1,36.3l0.4-0.2l0.2-0.7v-3.8c0-0.9,0-1.6-0.2-2c-0.2-0.5-0.7-0.9-1.3-1.1L44.5,28
		c-0.4-0.2-0.9-0.7-1.6-0.9c-0.4-0.2-0.9-0.4-1.6-0.9c-0.7-0.5-1.4-0.7-2-1.1c-0.7-0.4-1.3-0.7-2-1.1c-0.7-0.2-1.3-0.7-2-0.9
		c-0.7-0.2-1.1-0.7-1.6-0.7v-6.3c1.1-0.9,1.6-2,1.6-3.6V7.5c0-1.1-0.2-2-0.5-2.9c-0.2-0.9-0.7-1.6-1.4-2.3c-0.7-0.7-1.3-1.3-2.2-1.6
		c-1.1-0.5-2-0.7-3.4-0.7c-1.1,0-2.3,0.2-3.2,0.7c-0.9,0.2-1.8,0.9-2.2,1.6c-0.7,0.7-1.1,1.3-1.6,2.3c-0.2,0.9-0.5,1.8-0.5,2.9v4.9
		c0,1.6,0.7,2.7,1.8,3.6v6.3c-2,0.7-5.8,2.7-11.7,6.1l-1.1,1.1C9.2,30,9,30.7,9,31.6v3.8L9.2,36l0.7,0.2H46.1z"/>
</g>
</svg>
