<?xml version="1.0" encoding="utf-8"?>
<!-- Generator: Adobe Illustrator 21.0.2, SVG Export Plug-In . SVG Version: 6.00 Build 0)  -->
<svg version="1.1" id="Layer_1" xmlns="http://www.w3.org/2000/svg" xmlns:xlink="http://www.w3.org/1999/xlink" x="0px" y="0px"
	 viewBox="0 0 419.5 247.5" style="enable-background:new 0 0 419.5 247.5;" xml:space="preserve">
<style type="text/css">
	.st0{fill:#823332;}
	.st1{fill:#FFFFFF;}
	.st2{fill:none;}
</style>
<path class="st0" d="M393.1,152.8c4.8-3.1,1.7-8.1,0.4-12.2c-0.5-1.6-1.2-2.7-1.5-4.7c0,0-0.2-4.8,0.6-7.4
	c18.7-17.7,28.4-37,25.9-56C411.5,19.4,312.3-11.3,196.9,4C81.5,19.4-6.4,74.8,0.7,128C7.7,181,107,211.7,222.4,196.4
	c60.6-8.1,113.7-27.2,149.3-51.3c0.1,3.4,0.2,7.1-0.1,10.7l0.1,0.1c-1,9.5-9.5,29.9-10.3,35.2c-1.5,10,4.1,16.8,11.4,18.5
	c0.2,2.4,0.4,5.8,0.2,9.1l0,0c-0.5,5-5,15.6-5.4,18.3c-1.2,8.1,6.6,12.3,12.9,8.2c7.6-4.9,2.7-12.8,0.7-19.4
	c-0.7-2.5-1.9-4.2-2.4-7.4c0,0-0.2-4.9,0.4-8.9c2.3-0.4,4.6-1.3,6.9-2.8c14.5-9.4,5.1-24.6,1.4-37.2c-1.4-4.8-3.6-8.2-4.6-14.2
	c0,0-0.4-11.5,1.1-19.5c1.5-1.2,2.9-2.4,4.3-3.6c0,1.1,0.1,2.4,0,3.6l0,0c-0.3,3.1-3.1,9.8-3.4,11.6
	C384.2,152.8,389.1,155.4,393.1,152.8z"/>
<path class="st1" d="M376.9,243.3c0,0,6.1-2.8,2.7-10.7C379.6,232.6,388.3,242.2,376.9,243.3"/>
<path class="st1" d="M379,203c0,0,11.8-5.4,5.3-20.5C384.3,182.5,401,200.8,379,203"/>
<path class="st1" d="M390.8,151.5c0,0,3.9-1.8,1.7-6.7C392.5,144.8,398,150.8,390.8,151.5"/>
<g>
	<path class="st1" d="M147.2,192.2c19.8,0.7,33.3-0.9,33.3-0.9C168.6,192.1,157.5,192.3,147.2,192.2z"/>
	<path class="st1" d="M238.1,9.2c11.8-0.8,22.9-1,33.2-0.9C251.5,7.6,238.1,9.2,238.1,9.2z"/>
	<path class="st1" d="M410.7,71.3c0,0-15.4-61.4-139.4-63c29,1,71.6,6.9,105.9,29.8c-11.2,1.3-22.9,10.4-35,27.4
		c-6.8,9.4-15.1,23.9-24.9,43.6c-1.6,3.2-5.9,10.8-12.8,22.6c-1.3,2-2,3.3-2,3.9c0,0.3,0.6,0.8,1.9,1.7c0.1-0.1,5.2-6.1,15.3-18.2
		c9.4-11.3,16.7-17,21.8-17c1.3,0,2,0.5,2,1.4c0,1.5-2.1,5.6-6.2,12.5c-4.1,6.8-6.2,12-6.2,15.5c0,3.4,1.9,5.1,5.6,5.1
		c5.8,0,12.1-4.2,18.9-12.7l-0.7-0.4c-5.6,5-9.7,7.5-12.4,7.5c-3.7,0-5.6-2.2-5.6-6.6c0-2.7,1.9-7.3,5.8-13.8
		c3.8-6.4,5.7-10.2,5.7-11.3c0-2.1-0.9-3.1-2.7-3.1c-4.7,0-11.2,4.5-19.5,13.4c-2.5,2.7-5.6,6.3-9.3,10.9c-3.9,4.8-6.3,7.6-7.3,8.6
		h-0.3c0.1-0.7,6.6-11.6,19.3-32.7c1.2-2,4.1-7.5,8.6-16.5c3.8-7.5,7.1-13.3,10-17.6c8.9-13.2,19.1-19.9,30.4-19.9
		c2.3,0,4.7,0.4,7.1,1.1C394.4,51.1,403.3,60.2,410.7,71.3z"/>
	<path class="st1" d="M206.7,125.1c-4.6,4.4-8.4,6.6-11.5,6.6c-3.6,0-5.4-2.7-5.4-8.3c0-8.6,3.4-16.6,10.1-24l-0.5-0.4l-4.4,2.9
		c-5.8,10.6-11.2,18.2-16.2,22.7c-2.8,2.6-6.1,4.6-10.1,6.1c-1.7,0.6-3.1,0.9-4.3,0.9c-2.6,0-3.9-1.3-3.9-3.9c0-4.2,3.1-9,9.4-14.3
		c7.1-6.5,16.6-12.7,28.6-18.7c4.2-2,7.2-3,8.9-3c0.3,0,1.1,0.3,2.5,0.8l1.2-1.4c0.6-1.8,1-2.7,1-2.5l-0.4-0.8h-1.3
		c-1.8,0-4.9,1.1-9.2,3.4c-12.4,6.3-22.2,12.6-29.5,19.1c-11.1,10.1-16.6,17.3-16.6,21.5c0,3.5,1.5,5.3,4.7,5.3
		c6,0,14.5-5.9,25.6-17.6c-1.1,2.9-1.7,5.9-1.7,8.8c0,6,2,9,6.1,9c3.4,0,9.2-3.9,17.6-11.7L206.7,125.1z"/>
	<path class="st1" d="M109.9,171.7c6.4-6.2,12-12.6,16.8-19.1c3-0.5,5.7-1.7,8.1-3.5l2.6-2.2l5-3.2l-0.9-1.4
		c-3.3,3.2-7.2,5.1-11.5,5.6c0.7-1.1,1.4-2.2,2.1-3.2l26.9-44.3c4.6-5.1,8.6-8.1,12.2-9l0.5-1.8c-5.5,1.5-11,5-16.5,10.5
		c-17.2,17.2-26.6,25.8-28.1,25.8l-1.1-0.9c0-2.2,2.1-6.6,6.2-13.2c4.1-6.7,6.2-11.2,6.2-13.6c0-1.8-1.4-2.8-4.1-2.8
		c-4.6,0-9.4,3.3-14.6,10l-0.7,1l0.2,1.1c5.9-6,10.6-8.9,14.1-8.9c1.8,0,2.8,0.8,2.8,2.4c0,2.3-2.7,6.5-8.1,12.5
		c-5.4,6-8.1,10.4-8.1,13.3c0,2.8,1.1,4.2,3.2,4.2c2.1,0,4.7-1.4,8-4.1c0.8-0.8,1.8-1.8,3-3.1l7.5-7.6c1.5-1.5,3.5-3.7,6.2-6.7
		c2.7-3,4.7-5.3,6.1-6.7c2.6-2.4,5-4.4,7.2-6.1v0.3L157,101c-3.8,3.9-14,19.6-30.8,47c-4.1-0.1-7.4-0.8-9.8-2.2
		c-4.9-2.7-8.7-8.4-11.4-17.3c-0.8-2.5-1.7-6.2-2.8-11.1c-1-4.8-1.8-8.2-2.4-10.1c-1.5-5.4-4.1-9.9-7.8-13.6c17.4-4.1,26-11,26-20.6
		c0-3.4-1.5-6.3-4.4-8.9c-2.5-2.2-5.5-3.7-9-4.5c10.7-8.2,18.4-12.3,23.2-12.3c1.9,0,3.2,0.6,3.9,1.9l1.2-1.2
		c-1.1-1.6-2.7-2.4-4.8-2.4c-6.6,0-14.7,4.6-24.4,13.7c-4.4-1.2-10-1.8-16.8-1.8c-16.4,0-28.9,4.3-37.5,12.9
		c-2.4,2.3-3.6,4.7-3.6,6.9c0,4.7,3,8.1,9.1,10.4c4.3,1.6,9.3,2.5,14.9,2.5l1.7-1.6c-4.6,0.1-9.2-0.9-13.6-3.1
		c-5.3-2.6-7.9-6-7.9-10.2c0-2.6,0.7-4.6,2.2-6.1c0.9-1,2.2-1.6,3.8-2.1c7.8-3.9,17.3-5.9,28.4-5.9c6.2,0,11.4,0.5,15.5,1.5
		c-5.4,5.1-10.5,11.6-15.4,19.5c-1,1.7-3.8,6.8-8.4,15.2c-4.3,8.1-8,14.6-11.1,19.4c-10.1,15.9-19,23.8-26.9,23.8
		c-8.4,0-12.6-4.1-12.6-12.4c0-5.6,1.9-11.1,5.8-16.5c4.2-6,9-8.9,14.3-8.9c1.5,0,2.8,0.7,4.2,2l1.4-2.2c-0.8-1.5-2.2-2.2-4.1-2.2
		c-5.8,0-11.9,4.2-18.1,12.5c-6,7.9-8.9,14.9-8.9,21c0,3.7,1.2,6.7,3.5,9c2.3,2.4,5.4,3.6,9.1,3.6c4.9,0,10.4-2.7,16.3-8.3l5.9-5.6
		c7.3-6.9,15.2-18.4,23.7-34.4c9.1-17.1,16.5-28.8,22.2-35.2c8.9,2,13.3,6.1,13.3,12.3c0,8.4-8.8,13.8-26.3,16.2l-2.4,2.9
		c3.9,4.1,6.6,8.9,8.1,14.6l3.1,14.1c1.3,6,2.6,10.8,4.1,14.3c4.3,10.3,11.7,15.4,22,15.4c0.1,0,0.2,0,0.4,0
		c-3.8,6.2-7.2,11-10.1,14.1c-5.6,5.8-13.1,9.2-22.6,10.1l-1.8,6.5c-30.1-8.4-60.8-24.4-80.8-54.3c0,0,15.4,61.3,139.3,63
		c-16.2-0.6-36.6-2.7-57.5-8.4C97.3,181.6,104.1,177.5,109.9,171.7z"/>
	<path class="st1" d="M278.4,55.1l0.1,0.1C278.6,55,278.5,55,278.4,55.1z"/>
	<path class="st1" d="M305.9,125.1c-4.6,4.4-8.4,6.6-11.5,6.6c-3.6,0-5.4-2.7-5.4-8.3c0-8.6,3.4-16.6,10.1-24l-0.5-0.4l-4.4,2.9
		c-5.8,10.6-11.1,18.2-16.2,22.7c-2.8,2.6-6.1,4.6-10.1,6.1c-1.7,0.6-3.1,0.9-4.3,0.9c-2.6,0-3.9-1.3-3.9-3.9c0-0.1,0-0.1,0-0.2
		c0.8-0.8,1.6-1.7,2.4-2.7l-0.6-0.3c-0.6,0.7-1.2,1.3-1.7,1.8c0.6-3.9,3.7-8.2,9.3-13.1c7.1-6.5,16.6-12.7,28.6-18.7
		c4.2-2,7.2-3,8.9-3c0.3,0,1.1,0.3,2.5,0.8l1.2-1.4c0.6-1.8,1-2.7,1-2.5l-0.4-0.8h-1.3c-1.8,0-4.9,1.1-9.2,3.4
		c-12.4,6.3-22.2,12.6-29.5,19.1c-9.9,9-15.3,15.7-16.4,20c-1.4,0.6-2.9,0.9-4.4,0.9c-3.3,0-5.1-2.4-5.5-7.3
		c-0.3-3.7,0.3-7.7,1.6-12c1-3,4.3-9.6,10-19.7c2.2-0.7,4.1-1,5.6-1h1.1l2.3-2.6h-1.9c-1.7,0-3.5,0.3-5.4,0.9
		c12.6-22.2,19.4-33.7,20.4-34.4l-0.5-0.4c-3.7,3.8-11.2,15.6-22.6,35.3c-10,2.9-20,7.9-29.8,15.1c-12.2,8.9-18.2,17.4-18.2,25.7
		c0,4.3,1.7,6.5,5.1,6.5c7.2,0,19.5-12.1,36.9-36.3c-1.5,2.8-4,7.8-7.4,15.1c-2,4.7-2.9,8.6-2.9,11.7c0,3.2,0.8,5.6,2.4,7.4
		c1.3,1.4,2.6,2.1,4.1,2.1c1.7,0,3.9-0.8,6.5-2.4c0.8-0.5,1.6-1.2,2.6-2c0.3,2.8,1.8,4.2,4.6,4.2c6,0,14.5-5.9,25.6-17.6
		c-1.1,2.9-1.7,5.9-1.7,8.8c0,6,2,9,6.1,9c3.4,0,9.2-3.9,17.6-11.7L305.9,125.1z M236.6,115.5c-9.6,10.8-16.4,16.2-20.2,16.2
		c-2.5,0-3.7-1.6-3.7-4.8c0-7.9,5.1-15,15.2-21.5c5.1-3.3,13.6-7.3,25.6-12C250.9,98.5,245.3,105.9,236.6,115.5z"/>
</g>
<rect x="-330.4" y="-298.4" class="st2" width="1080" height="1812.2"/>
</svg>
