<?xml version="1.0" encoding="utf-8"?>
<!-- Generator: Adobe Illustrator 21.0.2, SVG Export Plug-In . SVG Version: 6.00 Build 0)  -->
<svg version="1.1" id="Layer_1" xmlns="http://www.w3.org/2000/svg" xmlns:xlink="http://www.w3.org/1999/xlink" x="0px" y="0px"
	 viewBox="0 0 94.7 94.7" style="enable-background:new 0 0 94.7 94.7;" xml:space="preserve">
<style type="text/css">
	.st0{fill:none;}
	.st1{fill:#010101;}
	.st2{fill:#F7EC21;}
	.st3{fill:#FFFFFF;}
</style>
<path class="st0" d="M15.5,0.2C7.2,0.2,0.4,7,0.4,15.4v64.4c0,7.2,5,13.2,11.7,14.8h71.3c6.7-1.6,11.7-7.6,11.7-14.8V15.4
	c0-8.4-6.8-15.2-15.2-15.2H15.5"/>
<path class="st1" d="M0,79.5c0,8.4,6.8,15.2,15.2,15.2h64.4c8.4,0,15.2-6.8,15.2-15.2V15.1C94.7,6.7,87.9,0,79.5,0H15.1
	C6.8,0,0,6.7,0,15.1V79.5z M48,16.7c2.5,0,5,0.5,7.3,1.6c3.8,1.7,6.9,4.9,8.4,8.7c0.9,2.2,0.9,4.8,0.9,7.1c0,1.4-0.1,2.7-0.2,4
	c0,0.7-0.1,1.4-0.1,2l-0.1,1.1l0,0.8l1.4,1c1.2,0.4,2.5,0.1,3.6-0.3c0.7-0.2,1.3-0.7,2.1-0.6l1.6,0.7l0,1.2
	c-0.7,0.8-1.8,1.2-2.7,1.5c-1,0.3-2.1,0.6-3,1.2c-0.9,0.5-1.8,1.2-2.2,2.3c-0.4,1.2-0.1,2.4,0.4,3.5c0.9,1.9,2,3.6,3.3,5.3
	c2.4,3,5.6,5.4,9.4,6.6l1.7,0.4L80,65l0,0.1l-0.5,0.5c-1.1,0.8-2.6,1.2-3.9,1.5c-0.6,0.1-1.2,0.3-1.9,0.4c-0.6,0.1-1.4,0.1-2,0.4
	c-1,0.4-1.1,1.9-1.3,2.7l-0.2,1l-0.4,0.5l-1.7-0.2c-1.3-0.2-2.6-0.4-3.9-0.3c-1.4,0-2.9,0.2-4.2,0.8c-1.3,0.5-2.4,1.3-3.5,2.1
	c-2,1.4-3.9,2.7-6.3,3.3C49,78,47.7,78,46.5,77.9c-1.3,0-2.6-0.3-3.8-0.8c-2.3-0.9-4.2-2.5-6.2-3.9c-1.2-0.7-2.4-1.3-3.8-1.5
	c-1.5-0.2-3-0.3-4.4-0.1l-1.7,0.3l-1.7,0.3l-0.3-0.3l-0.3-1.1c-0.1-0.6-0.2-1.2-0.4-1.7L23,67.9c-0.6-0.3-1.3-0.3-1.9-0.4
	c-1.1-0.2-2.2-0.5-3.3-0.8c-0.9-0.3-2.1-0.7-2.8-1.4l-0.2-0.2l0-0.1l0.2-0.2c1.1-0.2,2.2-0.5,3.2-0.9c1.9-0.8,3.6-1.8,5.1-3.2
	c2.2-1.9,4.1-4.3,5.5-7c0.5-0.9,1-1.9,1.1-2.9c0.4-2.5-1.7-3.9-3.7-4.7c-1.1-0.4-2.2-0.7-3.3-1.3c-0.5-0.3-1.4-0.8-1.3-1.5l1.1-1
	l0.9-0.1l1,0.3c1.2,0.5,2.6,0.9,3.9,0.7c0.7-0.1,1.3-0.4,1.8-0.8l0.2-0.3l0-0.9c0-0.7-0.1-1.4-0.1-2.1c-0.2-2.7-0.3-5.4-0.1-8
	c0.1-1.1,0.2-2.3,0.6-3.4c0.3-1.1,0.9-2.1,1.5-3.1c1.1-1.8,2.5-3.4,4.2-4.6c2.5-1.8,5.5-2.9,8.6-3.2C46,16.7,47,16.7,48,16.7"/>
<path class="st2" d="M69.4,87.4c-0.8,0-1.5,0.7-1.5,1.5c0,0.8,0.7,1.5,1.5,1.5c0.8,0,1.5-0.7,1.5-1.5C70.9,88.1,70.2,87.4,69.4,87.4
	 M59.6,87.4c-0.8,0-1.5,0.7-1.5,1.5c0,0.8,0.7,1.5,1.5,1.5c0.8,0,1.5-0.7,1.5-1.5C61.1,88.1,60.4,87.4,59.6,87.4 M40,87.4
	c-0.8,0-1.5,0.7-1.5,1.5c0,0.8,0.7,1.5,1.5,1.5c0.8,0,1.5-0.7,1.5-1.5C41.5,88.1,40.8,87.4,40,87.4 M35.1,87.4
	c-0.8,0-1.5,0.7-1.5,1.5c0,0.8,0.7,1.5,1.5,1.5c0.8,0,1.5-0.7,1.5-1.5C36.6,88.1,35.9,87.4,35.1,87.4 M30.2,87.4
	c-0.8,0-1.5,0.7-1.5,1.5c0,0.8,0.7,1.5,1.5,1.5c0.8,0,1.5-0.7,1.5-1.5C31.7,88.1,31,87.4,30.2,87.4 M25.3,87.4
	c-0.8,0-1.5,0.7-1.5,1.5c0,0.8,0.7,1.5,1.5,1.5c0.8,0,1.5-0.7,1.5-1.5C26.8,88.1,26.1,87.4,25.3,87.4 M84,82.5
	c-0.8,0-1.5,0.7-1.5,1.5c0,0.8,0.7,1.5,1.5,1.5c0.8,0,1.5-0.7,1.5-1.5C85.6,83.2,84.9,82.5,84,82.5 M74.3,82.5
	c-0.8,0-1.5,0.7-1.5,1.5s0.7,1.5,1.5,1.5c0.8,0,1.5-0.7,1.5-1.5C75.8,83.2,75.1,82.5,74.3,82.5 M69.4,82.5c-0.8,0-1.5,0.7-1.5,1.5
	s0.7,1.5,1.5,1.5c0.8,0,1.5-0.7,1.5-1.5C70.9,83.2,70.2,82.5,69.4,82.5 M64.5,82.5c-0.8,0-1.5,0.7-1.5,1.5c0,0.8,0.7,1.5,1.5,1.5
	c0.8,0,1.5-0.7,1.5-1.5C66,83.2,65.3,82.5,64.5,82.5 M59.6,82.5c-0.8,0-1.5,0.7-1.5,1.5s0.7,1.5,1.5,1.5c0.8,0,1.5-0.7,1.5-1.5
	C61.1,83.2,60.4,82.5,59.6,82.5 M40,82.5c-0.8,0-1.5,0.7-1.5,1.5c0,0.8,0.7,1.5,1.5,1.5c0.8,0,1.5-0.7,1.5-1.5
	C41.5,83.2,40.8,82.5,40,82.5 M30.2,82.5c-0.8,0-1.5,0.7-1.5,1.5s0.7,1.5,1.5,1.5c0.8,0,1.5-0.7,1.5-1.5
	C31.7,83.2,31,82.5,30.2,82.5 M25.3,82.5c-0.8,0-1.5,0.7-1.5,1.5c0,0.8,0.7,1.5,1.5,1.5c0.8,0,1.5-0.7,1.5-1.5
	C26.8,83.2,26.1,82.5,25.3,82.5 M20.4,82.5c-0.8,0-1.5,0.7-1.5,1.5c0,0.8,0.7,1.5,1.5,1.5c0.8,0,1.5-0.7,1.5-1.5
	C21.9,83.2,21.2,82.5,20.4,82.5 M15.5,82.5c-0.8,0-1.5,0.7-1.5,1.5s0.7,1.5,1.5,1.5c0.8,0,1.5-0.7,1.5-1.5
	C17,83.2,16.3,82.5,15.5,82.5 M69.4,77.6c-0.8,0-1.5,0.7-1.5,1.5c0,0.8,0.7,1.5,1.5,1.5c0.8,0,1.5-0.7,1.5-1.5
	C70.9,78.3,70.2,77.6,69.4,77.6 M35.1,77.6c-0.8,0-1.5,0.7-1.5,1.5c0,0.8,0.7,1.5,1.5,1.5c0.8,0,1.5-0.7,1.5-1.5
	C36.6,78.3,35.9,77.6,35.1,77.6 M15.5,77.6c-0.8,0-1.5,0.7-1.5,1.5c0,0.8,0.7,1.5,1.5,1.5c0.8,0,1.5-0.7,1.5-1.5
	C17,78.3,16.3,77.6,15.5,77.6 M10.6,77.6c-0.8,0-1.5,0.7-1.5,1.5c0,0.8,0.7,1.5,1.5,1.5c0.8,0,1.5-0.7,1.5-1.5
	C12.1,78.3,11.5,77.6,10.6,77.6 M89,72.7c-0.8,0-1.5,0.7-1.5,1.5c0,0.8,0.7,1.5,1.5,1.5c0.8,0,1.5-0.7,1.5-1.5S89.8,72.7,89,72.7
	 M79.2,72.7c-0.8,0-1.5,0.7-1.5,1.5c0,0.8,0.7,1.5,1.5,1.5c0.8,0,1.5-0.7,1.5-1.5S80,72.7,79.2,72.7 M74.3,72.7
	c-0.8,0-1.5,0.7-1.5,1.5c0,0.8,0.7,1.5,1.5,1.5c0.8,0,1.5-0.7,1.5-1.5S75.1,72.7,74.3,72.7 M20.4,72.7c-0.8,0-1.5,0.7-1.5,1.5
	c0,0.8,0.7,1.5,1.5,1.5c0.8,0,1.5-0.7,1.5-1.5S21.2,72.7,20.4,72.7 M15.5,72.7c-0.8,0-1.5,0.7-1.5,1.5c0,0.8,0.7,1.5,1.5,1.5
	c0.8,0,1.5-0.7,1.5-1.5S16.3,72.7,15.5,72.7 M10.6,72.7c-0.8,0-1.5,0.7-1.5,1.5c0,0.8,0.7,1.5,1.5,1.5c0.8,0,1.5-0.7,1.5-1.5
	S11.5,72.7,10.6,72.7 M5.7,72.7c-0.8,0-1.5,0.7-1.5,1.5c0,0.8,0.7,1.5,1.5,1.5c0.8,0,1.5-0.7,1.5-1.5C7.2,73.4,6.5,72.7,5.7,72.7
	 M89,67.8c-0.8,0-1.5,0.7-1.5,1.5c0,0.8,0.7,1.5,1.5,1.5c0.8,0,1.5-0.7,1.5-1.5C90.5,68.5,89.8,67.8,89,67.8 M5.7,67.8
	c-0.8,0-1.5,0.7-1.5,1.5c0,0.8,0.7,1.5,1.5,1.5c0.8,0,1.5-0.7,1.5-1.5C7.2,68.5,6.5,67.8,5.7,67.8 M10.6,62.9
	c-0.8,0-1.5,0.7-1.5,1.5c0,0.8,0.7,1.5,1.5,1.5c0.8,0,1.5-0.7,1.5-1.5C12.1,63.6,11.5,62.9,10.6,62.9 M5.7,62.9
	c-0.8,0-1.5,0.7-1.5,1.5c0,0.8,0.7,1.5,1.5,1.5c0.8,0,1.5-0.7,1.5-1.5C7.2,63.6,6.5,62.9,5.7,62.9 M89,58c-0.8,0-1.5,0.7-1.5,1.5
	c0,0.8,0.7,1.5,1.5,1.5c0.8,0,1.5-0.7,1.5-1.5C90.5,58.7,89.8,58,89,58 M84,58c-0.8,0-1.5,0.7-1.5,1.5c0,0.8,0.7,1.5,1.5,1.5
	c0.8,0,1.5-0.7,1.5-1.5C85.6,58.7,84.9,58,84,58 M79.2,58c-0.8,0-1.5,0.7-1.5,1.5s0.7,1.5,1.5,1.5c0.8,0,1.5-0.7,1.5-1.5
	C80.7,58.7,80,58,79.2,58 M15.5,58c-0.8,0-1.5,0.7-1.5,1.5s0.7,1.5,1.5,1.5c0.8,0,1.5-0.7,1.5-1.5C17,58.7,16.3,58,15.5,58
	 M10.6,53.1c-0.8,0-1.5,0.7-1.5,1.5s0.7,1.5,1.5,1.5c0.8,0,1.5-0.7,1.5-1.5S11.5,53.1,10.6,53.1 M5.7,53.1c-0.8,0-1.5,0.7-1.5,1.5
	s0.7,1.5,1.5,1.5c0.8,0,1.5-0.7,1.5-1.5S6.6,53.1,5.7,53.1 M84,48.2c-0.8,0-1.5,0.7-1.5,1.5c0,0.8,0.7,1.5,1.5,1.5
	c0.8,0,1.5-0.7,1.5-1.5C85.6,48.9,84.9,48.2,84,48.2 M79.2,48.2c-0.8,0-1.5,0.7-1.5,1.5c0,0.8,0.7,1.5,1.5,1.5
	c0.8,0,1.5-0.7,1.5-1.5C80.7,48.9,80,48.2,79.2,48.2 M15.5,48.2c-0.8,0-1.5,0.7-1.5,1.5c0,0.8,0.7,1.5,1.5,1.5
	c0.8,0,1.5-0.7,1.5-1.5C17,48.9,16.3,48.2,15.5,48.2 M89,43.3c-0.8,0-1.5,0.7-1.5,1.5c0,0.8,0.7,1.5,1.5,1.5c0.8,0,1.5-0.7,1.5-1.5
	S89.8,43.3,89,43.3 M10.6,43.3c-0.8,0-1.5,0.7-1.5,1.5c0,0.8,0.7,1.5,1.5,1.5c0.8,0,1.5-0.7,1.5-1.5S11.5,43.3,10.6,43.3 M5.7,43.3
	c-0.8,0-1.5,0.7-1.5,1.5c0,0.8,0.7,1.5,1.5,1.5c0.8,0,1.5-0.7,1.5-1.5C7.2,44,6.5,43.3,5.7,43.3 M89,38.5c-0.8,0-1.5,0.7-1.5,1.5
	c0,0.8,0.7,1.5,1.5,1.5c0.8,0,1.5-0.7,1.5-1.5C90.5,39.1,89.8,38.5,89,38.5 M84,38.5c-0.8,0-1.5,0.7-1.5,1.5c0,0.8,0.7,1.5,1.5,1.5
	c0.8,0,1.5-0.7,1.5-1.5C85.6,39.1,84.9,38.5,84,38.5 M79.2,33.6c-0.8,0-1.5,0.7-1.5,1.5c0,0.8,0.7,1.5,1.5,1.5
	c0.8,0,1.5-0.7,1.5-1.5C80.7,34.2,80,33.6,79.2,33.6 M74.3,33.6c-0.8,0-1.5,0.7-1.5,1.5c0,0.8,0.7,1.5,1.5,1.5
	c0.8,0,1.5-0.7,1.5-1.5C75.8,34.2,75.1,33.6,74.3,33.6 M10.6,33.6c-0.8,0-1.5,0.7-1.5,1.5c0,0.8,0.7,1.5,1.5,1.5
	c0.8,0,1.5-0.7,1.5-1.5C12.1,34.2,11.5,33.6,10.6,33.6 M84,28.7c-0.8,0-1.5,0.7-1.5,1.5c0,0.8,0.7,1.5,1.5,1.5
	c0.8,0,1.5-0.7,1.5-1.5C85.6,29.3,84.9,28.7,84,28.7 M74.3,28.7c-0.8,0-1.5,0.7-1.5,1.5c0,0.8,0.7,1.5,1.5,1.5
	c0.8,0,1.5-0.7,1.5-1.5C75.8,29.3,75.1,28.7,74.3,28.7 M69.4,28.7c-0.8,0-1.5,0.7-1.5,1.5c0,0.8,0.7,1.5,1.5,1.5
	c0.8,0,1.5-0.7,1.5-1.5C70.9,29.3,70.2,28.7,69.4,28.7 M25.3,28.7c-0.8,0-1.5,0.7-1.5,1.5c0,0.8,0.7,1.5,1.5,1.5
	c0.8,0,1.5-0.7,1.5-1.5C26.8,29.3,26.1,28.7,25.3,28.7 M10.6,28.7c-0.8,0-1.5,0.7-1.5,1.5c0,0.8,0.7,1.5,1.5,1.5
	c0.8,0,1.5-0.7,1.5-1.5C12.1,29.3,11.5,28.7,10.6,28.7 M74.3,23.8c-0.8,0-1.5,0.7-1.5,1.5c0,0.8,0.7,1.5,1.5,1.5
	c0.8,0,1.5-0.7,1.5-1.5C75.8,24.4,75.1,23.8,74.3,23.8 M89,18.9c-0.8,0-1.5,0.7-1.5,1.5c0,0.8,0.7,1.5,1.5,1.5
	c0.8,0,1.5-0.7,1.5-1.5C90.5,19.5,89.8,18.9,89,18.9 M84,18.9c-0.8,0-1.5,0.7-1.5,1.5c0,0.8,0.7,1.5,1.5,1.5c0.8,0,1.5-0.7,1.5-1.5
	C85.6,19.5,84.9,18.9,84,18.9 M10.6,18.9c-0.8,0-1.5,0.7-1.5,1.5c0,0.8,0.7,1.5,1.5,1.5c0.8,0,1.5-0.7,1.5-1.5
	C12.1,19.5,11.5,18.9,10.6,18.9 M5.7,18.9c-0.8,0-1.5,0.7-1.5,1.5c0,0.8,0.7,1.5,1.5,1.5c0.8,0,1.5-0.7,1.5-1.5
	C7.2,19.5,6.6,18.9,5.7,18.9 M84,14c-0.8,0-1.5,0.7-1.5,1.5c0,0.8,0.7,1.5,1.5,1.5c0.8,0,1.5-0.7,1.5-1.5C85.6,14.6,84.9,14,84,14
	 M79.2,14c-0.8,0-1.5,0.7-1.5,1.5c0,0.8,0.7,1.5,1.5,1.5c0.8,0,1.5-0.7,1.5-1.5C80.7,14.6,80,14,79.2,14 M64.5,14
	c-0.8,0-1.5,0.7-1.5,1.5c0,0.8,0.7,1.5,1.5,1.5s1.5-0.7,1.5-1.5C66,14.6,65.3,14,64.5,14 M20.4,14c-0.8,0-1.5,0.7-1.5,1.5
	c0,0.8,0.7,1.5,1.5,1.5c0.8,0,1.5-0.7,1.5-1.5C21.9,14.6,21.2,14,20.4,14 M59.6,9.1c-0.8,0-1.5,0.7-1.5,1.5c0,0.8,0.7,1.5,1.5,1.5
	c0.8,0,1.5-0.7,1.5-1.5C61.1,9.8,60.4,9.1,59.6,9.1 M54.7,9.1c-0.8,0-1.5,0.7-1.5,1.5c0,0.8,0.7,1.5,1.5,1.5c0.8,0,1.5-0.7,1.5-1.5
	C56.2,9.8,55.5,9.1,54.7,9.1 M44.9,9.1c-0.8,0-1.5,0.7-1.5,1.5c0,0.8,0.7,1.5,1.5,1.5c0.8,0,1.5-0.7,1.5-1.5
	C46.4,9.8,45.7,9.1,44.9,9.1 M40,9.1c-0.8,0-1.5,0.7-1.5,1.5c0,0.8,0.7,1.5,1.5,1.5c0.8,0,1.5-0.7,1.5-1.5C41.5,9.8,40.8,9.1,40,9.1
	 M35.1,9.1c-0.8,0-1.5,0.7-1.5,1.5c0,0.8,0.7,1.5,1.5,1.5c0.8,0,1.5-0.7,1.5-1.5C36.6,9.8,35.9,9.1,35.1,9.1 M30.2,9.1
	c-0.8,0-1.5,0.7-1.5,1.5c0,0.8,0.7,1.5,1.5,1.5c0.8,0,1.5-0.7,1.5-1.5C31.7,9.8,31,9.1,30.2,9.1 M20.4,9.1c-0.8,0-1.5,0.7-1.5,1.5
	c0,0.8,0.7,1.5,1.5,1.5c0.8,0,1.5-0.7,1.5-1.5C21.9,9.8,21.2,9.1,20.4,9.1 M10.6,9.1c-0.8,0-1.5,0.7-1.5,1.5c0,0.8,0.7,1.5,1.5,1.5
	c0.8,0,1.5-0.7,1.5-1.5C12.1,9.8,11.5,9.1,10.6,9.1 M64.5,4.2c-0.8,0-1.5,0.7-1.5,1.5c0,0.8,0.7,1.5,1.5,1.5S66,6.5,66,5.7
	C66,4.9,65.3,4.2,64.5,4.2 M44.9,4.2c-0.8,0-1.5,0.7-1.5,1.5s0.7,1.5,1.5,1.5c0.8,0,1.5-0.7,1.5-1.5C46.4,4.9,45.7,4.2,44.9,4.2
	 M40,4.2c-0.8,0-1.5,0.7-1.5,1.5s0.7,1.5,1.5,1.5c0.8,0,1.5-0.7,1.5-1.5C41.5,4.9,40.8,4.2,40,4.2 M30.2,4.2c-0.8,0-1.5,0.7-1.5,1.5
	s0.7,1.5,1.5,1.5c0.8,0,1.5-0.7,1.5-1.5C31.7,4.9,31,4.2,30.2,4.2 M48,15.3c-2.3,0-4.5,0.2-6.7,0.8c-3.5,1-6.7,3-8.9,5.8
	c-1.4,1.8-2.7,3.9-3.2,6.1c-0.6,2.5-0.6,5.1-0.5,7.6c0,1.3,0.1,2.7,0.2,4l0.1,1l0,1.2l-1.5,0.3c-0.6,0-1.2-0.2-1.8-0.4
	c-0.6-0.2-1.2-0.6-1.9-0.7c-1.1-0.1-2.3,0.3-3,1.1c-1.3,1.3-0.5,2.9,0.8,3.8c1,0.7,2.2,1.1,3.4,1.5c1,0.3,2.1,0.7,2.8,1.4
	c1.1,1.1,0.5,2.5-0.1,3.7c-0.5,0.9-1,1.8-1.6,2.7c-2,2.9-4.6,5.5-7.8,7c-1,0.4-2,0.8-3,1.1l-1.6,0.4l-0.6,1.5c0.3,1.4,2,2.2,3.2,2.6
	c1.1,0.4,2.2,0.7,3.3,0.9c0.7,0.1,1.4,0.3,2.1,0.4l0.6,0.4l0.2,0.8c0.2,0.6,0.3,1.3,0.5,1.9l0.6,1.1c0.9,0.7,2.4,0.2,3.4,0
	c2.7-0.5,5.7-0.5,8.1,0.9c2.1,1.2,3.9,2.9,6.2,3.9c2.4,1.1,5,1.5,7.5,1.2c2.4-0.2,4.6-1.2,6.6-2.5c2.2-1.5,4.2-3.3,6.9-3.7
	c1.5-0.2,3-0.2,4.4,0c1,0.1,2.1,0.5,3.1,0.4c1.4-0.1,1.5-1.7,1.8-2.8l0.4-1.5l0.9-0.2l1.1-0.2c2-0.4,4.1-0.8,5.8-2l1.2-1.3L81.2,64
	l-1.4-0.7c-2.1-0.4-4-1.3-5.7-2.5c-2.7-1.8-4.8-4.3-6.4-7.1c-0.3-0.6-0.6-1.2-0.9-1.8c-0.4-0.9-0.8-2-0.1-3c0.6-0.9,1.7-1.3,2.7-1.6
	c1.2-0.4,2.4-0.7,3.4-1.4c0.8-0.5,1.6-1.1,1.8-2.1c0.6-2.5-2.9-3.7-4.8-2.9c-1.1,0.5-2.5,1.1-3.7,0.7l-0.3-0.1l0-0.4l0.1-1.1
	l0.1-1.7c0.2-2.6,0.3-5.3,0-7.9c-0.1-1.2-0.3-2.4-0.6-3.5c-0.4-1.1-0.9-2.1-1.5-3.1c-1.1-1.8-2.5-3.5-4.2-4.8
	c-2.5-2-5.6-3.2-8.8-3.7C49.9,15.3,48.9,15.3,48,15.3 M1.7,15.1c0-7.4,6-13.4,13.4-13.4h64.4c7.4,0,13.4,6,13.4,13.4v64.4
	c0,7.4-6,13.4-13.4,13.4H15.1c-7.4,0-13.4-6-13.4-13.4V15.1z"/>
<path class="st3" d="M48,16.7c2.5,0,5,0.5,7.3,1.6c3.8,1.7,6.9,4.9,8.4,8.7c0.9,2.2,0.9,4.8,0.9,7.1c0,1.4-0.1,2.7-0.2,4
	c0,0.7-0.1,1.4-0.1,2l-0.1,1.1l0,0.8l1.4,1c1.2,0.4,2.5,0.1,3.6-0.3c0.7-0.2,1.3-0.7,2.1-0.6l1.6,0.7l0,1.2
	c-0.7,0.8-1.8,1.2-2.7,1.5c-1,0.3-2.1,0.6-3,1.2c-0.9,0.5-1.8,1.2-2.2,2.3c-0.4,1.2-0.1,2.4,0.4,3.5c0.9,1.9,2,3.6,3.3,5.3
	c2.4,3,5.6,5.4,9.4,6.6l1.7,0.4L80,65l0,0.1l-0.5,0.5c-1.1,0.8-2.6,1.2-3.9,1.5c-0.6,0.1-1.2,0.3-1.9,0.4c-0.6,0.1-1.4,0.1-2,0.4
	c-1,0.4-1.1,1.9-1.3,2.7l-0.2,1l-0.4,0.5l-1.7-0.2c-1.3-0.2-2.6-0.4-3.9-0.3c-1.4,0-2.9,0.2-4.2,0.8c-1.3,0.5-2.4,1.3-3.5,2.1
	c-2,1.4-3.9,2.7-6.3,3.3C49,78,47.7,78,46.5,77.9c-1.3,0-2.6-0.3-3.8-0.8c-2.3-0.9-4.2-2.5-6.2-3.9c-1.2-0.7-2.4-1.3-3.8-1.5
	c-1.5-0.2-3-0.3-4.4-0.1l-1.7,0.3l-1.7,0.3l-0.3-0.3l-0.3-1.1c-0.1-0.6-0.2-1.2-0.4-1.7L23,67.9c-0.6-0.3-1.3-0.3-1.9-0.4
	c-1.1-0.2-2.2-0.5-3.3-0.8c-0.9-0.3-2.1-0.7-2.8-1.4l-0.2-0.2l0-0.1l0.2-0.2c1.1-0.2,2.2-0.5,3.2-0.9c1.9-0.8,3.6-1.8,5.1-3.2
	c2.2-1.9,4.1-4.3,5.5-7c0.5-0.9,1-1.9,1.1-2.9c0.4-2.5-1.7-3.9-3.7-4.7c-1.1-0.4-2.2-0.7-3.3-1.3c-0.5-0.3-1.4-0.8-1.3-1.5l1.1-1
	l0.9-0.1l1,0.3c1.2,0.5,2.6,0.9,3.9,0.7c0.7-0.1,1.3-0.4,1.8-0.8l0.2-0.3l0-0.9c0-0.7-0.1-1.4-0.1-2.1c-0.2-2.7-0.3-5.4-0.1-8
	c0.1-1.1,0.2-2.3,0.6-3.4c0.3-1.1,0.9-2.1,1.5-3.1c1.1-1.8,2.5-3.4,4.2-4.6c2.5-1.8,5.5-2.9,8.6-3.2C46,16.7,47,16.7,48,16.7"/>
</svg>
