<?xml version="1.0" encoding="utf-8"?>
<!-- Generator: Adobe Illustrator 21.0.2, SVG Export Plug-In . SVG Version: 6.00 Build 0)  -->
<svg version="1.1" id="Layer_1" xmlns="http://www.w3.org/2000/svg" xmlns:xlink="http://www.w3.org/1999/xlink" x="0px" y="0px"
	 viewBox="0 0 50.4 44" style="enable-background:new 0 0 50.4 44;" xml:space="preserve">
<style type="text/css">
	.st0{fill:#823332;}
</style>
<polygon class="st0" points="45.1,6.3 44.4,6 44.1,5.2 44.1,1 44.4,0.3 45.1,0 49.3,0 50.1,0.3 50.4,1 50.4,5.2 50.1,6 49.3,6.3 "/>
<polygon class="st0" points="1.1,6.3 0.3,6 0,5.2 0,1 0.3,0.3 1.1,0 38.8,0 39.6,0.3 39.9,1 39.9,5.2 39.6,6 38.8,6.3 "/>
<polygon class="st0" points="45.1,18.9 44.4,18.6 44.1,17.8 44.1,13.6 44.4,12.9 45.1,12.6 49.3,12.6 50.1,12.9 50.4,13.6 
	50.4,17.8 50.1,18.6 49.3,18.9 "/>
<polygon class="st0" points="1.1,18.9 0.3,18.6 0,17.8 0,13.6 0.3,12.9 1.1,12.6 38.8,12.6 39.6,12.9 39.9,13.6 39.9,17.8 
	39.6,18.6 38.8,18.9 "/>
<polygon class="st0" points="45.1,31.5 44.4,31.2 44.1,30.4 44.1,26.2 44.4,25.5 45.1,25.2 49.3,25.2 50.1,25.5 50.4,26.2 
	50.4,30.4 50.1,31.2 49.3,31.5 "/>
<polygon class="st0" points="1.1,31.5 0.3,31.2 0,30.4 0,26.2 0.3,25.5 1.1,25.2 38.8,25.2 39.6,25.5 39.9,26.2 39.9,30.4 
	39.6,31.2 38.8,31.5 "/>
<polygon class="st0" points="45.1,44 44.4,43.7 44.1,43 44.1,38.8 44.4,38.1 45.1,37.8 49.3,37.8 50.1,38.1 50.4,38.8 50.4,43 
	50.1,43.7 49.3,44 "/>
<polygon class="st0" points="1.1,44 0.3,43.7 0,43 0,38.8 0.3,38.1 1.1,37.8 38.8,37.8 39.6,38.1 39.9,38.8 39.9,43 39.6,43.7 
	38.8,44 "/>
</svg>
