<?xml version="1.0" encoding="utf-8"?>
<!-- Generator: Adobe Illustrator 21.0.2, SVG Export Plug-In . SVG Version: 6.00 Build 0)  -->
<svg version="1.1" id="Layer_1" xmlns="http://www.w3.org/2000/svg" xmlns:xlink="http://www.w3.org/1999/xlink" x="0px" y="0px"
	 viewBox="0 0 61.7 59.3" style="enable-background:new 0 0 61.7 59.3;" xml:space="preserve">
<style type="text/css">
	.st0{fill:#808285;}
</style>
<path class="st0" d="M57.1,8V2.8c0-0.8-0.3-1.4-0.8-1.9l-1.6-0.5h-48c-0.8,0-1.4,0.3-1.9,0.5C4.1,1.5,3.9,2,3.9,2.8V8H57.1z"/>
<path class="st0" d="M8.8,27.2c1.1-1.1,1.7-2.2,1.7-3.8h0.3l0.3-0.5l0.5-0.3h0.3l0.3,0.3h0.3v0.3l0.3,0.3c0,1.1,0.3,1.9,0.8,2.8
	c0.3,0.8,1.1,1.4,1.9,1.9c0.8,0.3,1.6,0.5,2.5,0.5c1.4,0,2.8-0.5,3.9-1.4c0.8-1.1,1.4-2.2,1.4-3.8h0.3l0.3-0.5l0.5-0.3h0.3l0.3,0.3
	H25v0.3l0.3,0.3c0,1.7,0.5,2.8,1.7,3.8c1.1,0.8,2.2,1.4,3.6,1.4s2.7-0.5,3.9-1.4c0.8-1.1,1.4-2.2,1.6-3.8l0.3-0.5l0.5-0.3h0.5
	l0.3,0.3l0.3,0.3v0.3c0,1.7,0.5,2.8,1.6,3.8c1.1,0.8,2.2,1.4,3.6,1.4c1.4,0,2.7-0.5,3.8-1.4c0.8-1.1,1.4-2.2,1.6-3.8l0.3-0.5
	l0.5-0.3H50l0.3,0.3l0.3,0.3v0.3c0,1.7,0.5,2.8,1.6,3.8c1.1,0.8,2.2,1.4,3.6,1.4c0.8,0,1.4,0,2.2-0.3l1.6-1.4l1.1-1.6
	c0.3-0.5,0.5-1.4,0.5-2.2c0-0.5-0.3-1.1-0.3-2.2l-6.3-10.4h-48L0.3,20.9L0,21.2v1.1v0.8c0,1.7,0.5,3,1.4,3.8
	c1.1,1.1,2.5,1.6,3.9,1.6S8,28.1,8.8,27.2"/>
<path class="st0" d="M58.7,55.2l-1.7-0.8v-23H3.9v23l-1.7,0.8c-0.5,0.5-0.8,1.1-0.8,1.9v2.5h58.2v-2.5
	C59.6,56.3,59.3,55.8,58.7,55.2z M21.7,54.4H11.5V36.3h10.2V54.4z M49.4,49.2h-20V39h20V49.2z"/>
</svg>
