<?xml version="1.0" encoding="utf-8"?>
<!-- Generator: Adobe Illustrator 21.0.2, SVG Export Plug-In . SVG Version: 6.00 Build 0)  -->
<svg version="1.1" id="Layer_1" xmlns="http://www.w3.org/2000/svg" xmlns:xlink="http://www.w3.org/1999/xlink" x="0px" y="0px"
	 viewBox="0 0 202.5 203.1" style="enable-background:new 0 0 202.5 203.1;" xml:space="preserve">
<style type="text/css">
	.st0{fill:#813331;}
</style>
<path class="st0" d="M78.8,62.2V17.4L0.2,96l78.6,78.5v-46c56.1,0,95.4,17.9,123.4,57.2C191.1,129.6,157.4,73.5,78.8,62.2"/>
</svg>
