<?xml version="1.0" encoding="utf-8"?>
<!-- Generator: Adobe Illustrator 21.0.2, SVG Export Plug-In . SVG Version: 6.00 Build 0)  -->
<svg version="1.1" id="Layer_1" xmlns="http://www.w3.org/2000/svg" xmlns:xlink="http://www.w3.org/1999/xlink" x="0px" y="0px"
	 viewBox="0 0 202.5 203.1" style="enable-background:new 0 0 202.5 203.1;" xml:space="preserve">
<style type="text/css">
	.st0{fill:#8D8F91;}
</style>
<path class="st0" d="M182,96.6v95.8h-55.7v-50c0-4.1-3.3-4.9-7.4-4.9H83.7c-4.1,0-6.6,0.8-6.6,4.9v50H20.5V96.6L5,111.3H0l0.8-4.9
	l100.9-95.8l38.5,36.9V33.5h27.9v40.1l34.4,32.8v4.9l-2.4,0.8l-2.4-0.8L182,96.6z"/>
</svg>
