<?xml version="1.0" encoding="utf-8"?>
<!-- Generator: Adobe Illustrator 21.0.2, SVG Export Plug-In . SVG Version: 6.00 Build 0)  -->
<svg version="1.1" id="Layer_1" xmlns="http://www.w3.org/2000/svg" xmlns:xlink="http://www.w3.org/1999/xlink" x="0px" y="0px"
	 viewBox="0 0 202.5 203.1" style="enable-background:new 0 0 202.5 203.1;" xml:space="preserve">
<style type="text/css">
	.st0{fill:none;stroke:#813331;stroke-width:0.1;stroke-miterlimit:10;}
</style>
<polygon class="st0" points="101.3,153 163.6,198.6 140,124.3 202.3,80.5 126.5,80.5 101.3,4.5 76,80.5 0.2,80.5 62.5,124.3 
	38.9,198.6 "/>
</svg>
